com\doranco\multitiers\servlet\Home.class
com\doranco\multitiers\resource\security\SuperAdminAuthCheckedInterceptor.class
com\doranco\multitiers\mappers\ViewingMapper.class
com\doranco\multitiers\resource\BookResource.class
com\doranco\multitiers\mappers\UserMapperImpl.class
com\doranco\multitiers\model\vm\BookVM.class
com\doranco\multitiers\model\vm\UserVM.class
com\doranco\multitiers\resource\security\AuthenticationCheckedInterceptor.class
com\doranco\multitiers\mappers\NoteMapperImpl.class
com\doranco\multitiers\resource\security\AdminAuthenticationCheckedInterceptor.class
com\doranco\multitiers\resource\exception\mappers\UserNotFoundMapper.class
com\doranco\multitiers\mappers\ViewingMapperImpl.class
com\doranco\multitiers\resource\security\SuperAdminAuthChecked.class
com\doranco\multitiers\resource\security\SecurityCheckedInterceptor.class
com\doranco\multitiers\resource\security\SecurityFeature.class
com\doranco\multitiers\resource\security\SecurityChecked.class
com\doranco\multitiers\resource\exception\mappers\EntityNotFoundMapper.class
com\doranco\multitiers\resource\security\AuthenticationChecked.class
com\doranco\multitiers\resource\UserResource$1.class
com\doranco\multitiers\mappers\UserMapper.class
com\doranco\multitiers\resource\BookResource$1.class
com\doranco\multitiers\model\vm\ViewingVM.class
com\doranco\multitiers\mappers\UserReferenceMapper.class
com\doranco\multitiers\resource\exception\mappers\LibraryExceptionMapper.class
com\doranco\multitiers\mappers\BookMapper.class
com\doranco\multitiers\model\vm\CredentialsVM.class
com\doranco\multitiers\model\vm\OrderLineVM.class
com\doranco\multitiers\resource\security\AdminAuthenticationChecked.class
com\doranco\multitiers\mappers\OrderLineMapper.class
com\doranco\multitiers\mappers\OrderMapperImpl.class
com\doranco\multitiers\resource\OrderResource.class
com\doranco\multitiers\mappers\BookMapperImpl.class
com\doranco\multitiers\model\vm\NoteVM.class
com\doranco\multitiers\resource\NoteResource.class
com\doranco\multitiers\resource\ViewingResource.class
com\doranco\multitiers\mappers\NoteMapper.class
com\doranco\multitiers\context\RemoteContext.class
com\doranco\multitiers\resource\exception\mappers\GeneralExceptionMapper.class
com\doranco\multitiers\LibraryWebConstants.class
com\doranco\multitiers\App.class
com\doranco\multitiers\mappers\OrderMapper.class
com\doranco\multitiers\model\vm\OrderVM.class
com\doranco\multitiers\mappers\OrderLineMapperImpl.class
com\doranco\multitiers\resource\exception\mappers\NotAuthorizedMapper.class
com\doranco\multitiers\resource\UserResource.class
com\doranco\multitiers\resource\BookResource$2.class
com\doranco\multitiers\mappers\BookReferenceMapper.class
