C:\Users\stagiaire\Desktop\JAVA_WebS\workspace_webs\library-root\library-web\src\main\java\com\doranco\multitiers\App.java
C:\Users\stagiaire\Desktop\JAVA_WebS\workspace_webs\library-root\library-web\src\main\java\com\doranco\multitiers\context\RemoteContext.java
C:\Users\stagiaire\Desktop\JAVA_WebS\workspace_webs\library-root\library-web\src\main\java\com\doranco\multitiers\resource\security\SecurityChecked.java
C:\Users\stagiaire\Desktop\JAVA_WebS\workspace_webs\library-root\library-web\src\main\java\com\doranco\multitiers\model\vm\OrderVM.java
C:\Users\stagiaire\Desktop\JAVA_WebS\workspace_webs\library-root\library-web\src\main\java\com\doranco\multitiers\servlet\Home.java
C:\Users\stagiaire\Desktop\JAVA_WebS\workspace_webs\library-root\library-web\src\main\java\com\doranco\multitiers\LibraryWebConstants.java
C:\Users\stagiaire\Desktop\JAVA_WebS\workspace_webs\library-root\library-web\src\main\java\com\doranco\multitiers\resource\security\SuperAdminAuthChecked.java
C:\Users\stagiaire\Desktop\JAVA_WebS\workspace_webs\library-root\library-web\src\main\java\com\doranco\multitiers\resource\BookResource.java
C:\Users\stagiaire\Desktop\JAVA_WebS\workspace_webs\library-root\library-web\src\main\java\com\doranco\multitiers\resource\security\SuperAdminAuthCheckedInterceptor.java
C:\Users\stagiaire\Desktop\JAVA_WebS\workspace_webs\library-root\library-web\src\main\java\com\doranco\multitiers\resource\UserResource.java
C:\Users\stagiaire\Desktop\JAVA_WebS\workspace_webs\library-root\library-web\src\main\java\com\doranco\multitiers\resource\exception\mappers\GeneralExceptionMapper.java
C:\Users\stagiaire\Desktop\JAVA_WebS\workspace_webs\library-root\library-web\src\main\java\com\doranco\multitiers\resource\exception\mappers\UserNotFoundMapper.java
C:\Users\stagiaire\Desktop\JAVA_WebS\workspace_webs\library-root\library-web\src\main\java\com\doranco\multitiers\resource\security\AdminAuthenticationChecked.java
C:\Users\stagiaire\Desktop\JAVA_WebS\workspace_webs\library-root\library-web\src\main\java\com\doranco\multitiers\mappers\OrderLineMapper.java
C:\Users\stagiaire\Desktop\JAVA_WebS\workspace_webs\library-root\library-web\src\main\java\com\doranco\multitiers\resource\NoteResource.java
C:\Users\stagiaire\Desktop\JAVA_WebS\workspace_webs\library-root\library-web\src\main\java\com\doranco\multitiers\model\vm\NoteVM.java
C:\Users\stagiaire\Desktop\JAVA_WebS\workspace_webs\library-root\library-web\src\main\java\com\doranco\multitiers\mappers\BookMapper.java
C:\Users\stagiaire\Desktop\JAVA_WebS\workspace_webs\library-root\library-web\src\main\java\com\doranco\multitiers\resource\security\SecurityFeature.java
C:\Users\stagiaire\Desktop\JAVA_WebS\workspace_webs\library-root\library-web\src\main\java\com\doranco\multitiers\resource\exception\mappers\LibraryExceptionMapper.java
C:\Users\stagiaire\Desktop\JAVA_WebS\workspace_webs\library-root\library-web\src\main\java\com\doranco\multitiers\model\vm\CredentialsVM.java
C:\Users\stagiaire\Desktop\JAVA_WebS\workspace_webs\library-root\library-web\src\main\java\com\doranco\multitiers\resource\security\AuthenticationChecked.java
C:\Users\stagiaire\Desktop\JAVA_WebS\workspace_webs\library-root\library-web\src\main\java\com\doranco\multitiers\mappers\NoteMapper.java
C:\Users\stagiaire\Desktop\JAVA_WebS\workspace_webs\library-root\library-web\src\main\java\com\doranco\multitiers\resource\OrderResource.java
C:\Users\stagiaire\Desktop\JAVA_WebS\workspace_webs\library-root\library-web\src\main\java\com\doranco\multitiers\model\vm\BookVM.java
C:\Users\stagiaire\Desktop\JAVA_WebS\workspace_webs\library-root\library-web\src\main\java\com\doranco\multitiers\resource\security\AdminAuthenticationCheckedInterceptor.java
C:\Users\stagiaire\Desktop\JAVA_WebS\workspace_webs\library-root\library-web\src\main\java\com\doranco\multitiers\model\vm\UserVM.java
C:\Users\stagiaire\Desktop\JAVA_WebS\workspace_webs\library-root\library-web\src\main\java\com\doranco\multitiers\resource\security\AuthenticationCheckedInterceptor.java
C:\Users\stagiaire\Desktop\JAVA_WebS\workspace_webs\library-root\library-web\src\main\java\com\doranco\multitiers\resource\ViewingResource.java
C:\Users\stagiaire\Desktop\JAVA_WebS\workspace_webs\library-root\library-web\src\main\java\com\doranco\multitiers\mappers\BookReferenceMapper.java
C:\Users\stagiaire\Desktop\JAVA_WebS\workspace_webs\library-root\library-web\src\main\java\com\doranco\multitiers\resource\exception\mappers\NotAuthorizedMapper.java
C:\Users\stagiaire\Desktop\JAVA_WebS\workspace_webs\library-root\library-web\src\main\java\com\doranco\multitiers\mappers\ViewingMapper.java
C:\Users\stagiaire\Desktop\JAVA_WebS\workspace_webs\library-root\library-web\src\main\java\com\doranco\multitiers\resource\security\SecurityCheckedInterceptor.java
C:\Users\stagiaire\Desktop\JAVA_WebS\workspace_webs\library-root\library-web\src\main\java\com\doranco\multitiers\mappers\OrderMapper.java
C:\Users\stagiaire\Desktop\JAVA_WebS\workspace_webs\library-root\library-web\src\main\java\com\doranco\multitiers\model\vm\OrderLineVM.java
C:\Users\stagiaire\Desktop\JAVA_WebS\workspace_webs\library-root\library-web\src\main\java\com\doranco\multitiers\mappers\UserReferenceMapper.java
C:\Users\stagiaire\Desktop\JAVA_WebS\workspace_webs\library-root\library-web\src\main\java\com\doranco\multitiers\mappers\UserMapper.java
C:\Users\stagiaire\Desktop\JAVA_WebS\workspace_webs\library-root\library-web\src\main\java\com\doranco\multitiers\resource\exception\mappers\EntityNotFoundMapper.java
C:\Users\stagiaire\Desktop\JAVA_WebS\workspace_webs\library-root\library-web\src\main\java\com\doranco\multitiers\model\vm\ViewingVM.java
