INDEX VERSION 1.4+C:\Users\stagiaire\Desktop\java_JPA\workspace_jpa\library-root\.metadata\.plugins\org.eclipse.wst.jsdt.core\indexes
2386639597.index
3119806590.index
377180476.index
1200040308.index
4099825856.index
2019649484.index
